…
``` r
tidy_brfss = 
  brfss_smart2010 %>% 
  janitor::clean_names() %>% 
  filter(topic == "Overall Health") %>% 
  select(-(class:question), -sample_size, -(confidence_limit_low : geo_location)) %>% 
  mutate(response = fct_relevel(response, c("Excellent", "Very good", "Good", "Fair", "Poor")))

tidy_brfss
```

    ## # A tibble: 10,625 x 5
    ##     year locationabbr locationdesc          response  data_value
    ##    <int> <chr>        <chr>                 <fct>          <dbl>
    ##  1  2010 AL           AL - Jefferson County Excellent       18.9
    ##  2  2010 AL           AL - Jefferson County Very good       30  
    ##  3  2010 AL           AL - Jefferson County Good            33.1
    ##  4  2010 AL           AL - Jefferson County Fair            12.5
    ##  5  2010 AL           AL - Jefferson County Poor             5.5
    ##  6  2010 AL           AL - Mobile County    Excellent       15.6
    ##  7  2010 AL           AL - Mobile County    Very good       31.3
    ##  8  2010 AL           AL - Mobile County    Good            31.2
    ##  9  2010 AL           AL - Mobile County    Fair            15.5
    ## 10  2010 AL           AL - Mobile County    Poor             6.4
    ## # ... with 10,615 more rows
…
``` r
n_locations_in_state %>% 
arrange(desc(n))
```

    ## # A tibble: 443 x 3
    ## # Groups:   year, locationabbr [443]
    ##     year locationabbr     n
    ##    <int> <chr>        <int>
    ##  1  2007 FL              44
    ##  2  2010 FL              41
    ##  3  2005 NJ              19
    ##  4  2006 NJ              19
    ##  5  2009 NJ              19
    ##  6  2010 NJ              19
    ##  7  2008 NJ              18
    ##  8  2007 NJ              16
    ##  9  2008 NC              16
    ## 10  2010 TX              16
    ## # ... with 433 more rows
…
``` r
instacart %>% 
  distinct(aisle) %>% 
  nrow()
```

    ## [1] 134

``` r
instacart %>% 
  count(aisle) %>% 
  arrange(desc(n))
```

    ## # A tibble: 134 x 2
    ##    aisle                              n
    ##    <chr>                          <int>
    ##  1 fresh vegetables              150609
    ##  2 fresh fruits                  150473
    ##  3 packaged vegetables fruits     78493
    ##  4 yogurt                         55240
    ##  5 packaged cheese                41699
    ##  6 water seltzer sparkling water  36617
    ##  7 milk                           32644
    ##  8 chips pretzels                 31269
    ##  9 soy lactosefree                26240
    ## 10 bread                          23635
    ## # ... with 124 more rows
…
